{
  "cached_at": "2025-08-30T02:48:35.968717",
  "data": {
    "page": 1,
    "pageSize": 25,
    "numPages": 2,
    "previous": null,
    "next": "http://km24.dk/api/generic-values/244?page=2",
    "count": 36,
    "items": [
      {
        "id": 440,
        "name": "Ældretilsynet",
        "isSubbed": false,
        "extra": {}
      },
      {
        "id": 407,
        "name": "Almen praksis",
        "isSubbed": false,
        "extra": {}
      },
      {
        "id": 442,
        "name": "Andre",
        "isSubbed": false,
        "extra": {}
      },
      {
        "id": 408,
        "name": "Asylcenter",
        "isSubbed": false,
        "extra": {}
      },
      {
        "id": 409,
        "name": "Behandlerfarmaceut",
        "isSubbed": false,
        "extra": {}
      },
      {
        "id": 410,
        "name": "Behandling med insulin",
        "isSubbed": false,
        "extra": {}
      },
      {
        "id": 411,
        "name": "Blodfortyndende medicin",
        "isSubbed": false,
        "extra": {}
      },
      {
        "id": 412,
        "name": "Bosted",
        "isSubbed": false,
        "extra": {}
      },
      {
        "id": 414,
        "name": "Covid-19 vaccinationscenter",
        "isSubbed": false,
        "extra": {}
      },
      {
        "id": 413,
        "name": "Covid-19-testcenter",
        "isSubbed": false,
        "extra": {}
      },
      {
        "id": 415,
        "name": "Demens og antipsykotika",
        "isSubbed": false,
        "extra": {}
      },
      {
        "id": 416,
        "name": "Digitale sundhedstilbud",
        "isSubbed": false,
        "extra": {}
      },
      {
        "id": 419,
        "name": "Fængsler",
        "isSubbed": false,
        "extra": {}
      },
      {
        "id": 417,
        "name": "Fodterapi",
        "isSubbed": false,
        "extra": {}
      },
      {
        "id": 418,
        "name": "Fysioterapi",
        "isSubbed": false,
        "extra": {}
      },
      {
        "id": 420,
        "name": "Genoptræningscenter",
        "isSubbed": false,
        "extra": {}
      },
      {
        "id": 421,
        "name": "Hjemmepleje hjemmesygepleje plejehjem",
        "isSubbed": false,
        "extra": {}
      },
      {
        "id": 422,
        "name": "Jordemoderklinik",
        "isSubbed": false,
        "extra": {}
      },
      {
        "id": 423,
        "name": "Kiropraktorområdet",
        "isSubbed": false,
        "extra": {}
      },
      {
        "id": 424,
        "name": "Klinisk tandtekniker",
        "isSubbed": false,
        "extra": {}
      },
      {
        "id": 425,
        "name": "Kosmetisk behandlingssted",
        "isSubbed": false,
        "extra": {}
      },
      {
        "id": 426,
        "name": "Medicinhåndtering",
        "isSubbed": false,
        "extra": {}
      },
      {
        "id": 427,
        "name": "Misbrugscenter",
        "isSubbed": false,
        "extra": {}
      },
      {
        "id": 428,
        "name": "Opstartstilsyn",
        "isSubbed": false,
        "extra": {}
      },
      {
        "id": 441,
        "name": "Øre-, næse-, halslægepraksis",
        "isSubbed": false,
        "extra": {}
      }
    ]
  }
}