{
  "cached_at": "2025-08-30T03:36:50.375416",
  "data": {
    "page": 1,
    "pageSize": 25,
    "numPages": 2,
    "previous": null,
    "next": "http://km24.dk/api/generic-values/246?page=2",
    "count": 40,
    "items": [
      {
        "id": 516,
        "name": "Københavns Byret",
        "isSubbed": true,
        "extra": {}
      },
      {
        "id": 554,
        "name": "Østre Landsret",
        "isSubbed": false,
        "extra": {}
      },
      {
        "id": 517,
        "name": "Pantefogeden i Aarhus",
        "isSubbed": false,
        "extra": {}
      },
      {
        "id": 518,
        "name": "Pantefogeden i Esbjerg",
        "isSubbed": false,
        "extra": {}
      },
      {
        "id": 519,
        "name": "Pantefogeden i Gribskov",
        "isSubbed": false,
        "extra": {}
      },
      {
        "id": 520,
        "name": "Pantefogeden i Guldborgsund",
        "isSubbed": false,
        "extra": {}
      },
      {
        "id": 521,
        "name": "Pantefogeden i Hedensted",
        "isSubbed": false,
        "extra": {}
      },
      {
        "id": 522,
        "name": "Pantefogeden i Holbæk",
        "isSubbed": false,
        "extra": {}
      },
      {
        "id": 523,
        "name": "Pantefogeden i Kalundborg",
        "isSubbed": false,
        "extra": {}
      },
      {
        "id": 524,
        "name": "Pantefogeden i Køge",
        "isSubbed": false,
        "extra": {}
      },
      {
        "id": 525,
        "name": "Pantefogeden i Næstved",
        "isSubbed": false,
        "extra": {}
      },
      {
        "id": 526,
        "name": "Pantefogeden i Varde",
        "isSubbed": false,
        "extra": {}
      },
      {
        "id": 527,
        "name": "Retten i Aalborg",
        "isSubbed": false,
        "extra": {}
      },
      {
        "id": 528,
        "name": "Retten i Aarhus",
        "isSubbed": false,
        "extra": {}
      },
      {
        "id": 529,
        "name": "Retten i Esbjerg",
        "isSubbed": false,
        "extra": {}
      },
      {
        "id": 530,
        "name": "Retten i Glostrup",
        "isSubbed": false,
        "extra": {}
      },
      {
        "id": 531,
        "name": "Retten i Grønland",
        "isSubbed": false,
        "extra": {}
      },
      {
        "id": 532,
        "name": "Retten i Helsingør",
        "isSubbed": false,
        "extra": {}
      },
      {
        "id": 533,
        "name": "Retten i Herning",
        "isSubbed": false,
        "extra": {}
      },
      {
        "id": 534,
        "name": "Retten i Hillerød",
        "isSubbed": false,
        "extra": {}
      },
      {
        "id": 535,
        "name": "Retten i Hjørring",
        "isSubbed": false,
        "extra": {}
      },
      {
        "id": 536,
        "name": "Retten i Holbæk",
        "isSubbed": false,
        "extra": {}
      },
      {
        "id": 537,
        "name": "Retten i Holstebro",
        "isSubbed": false,
        "extra": {}
      },
      {
        "id": 538,
        "name": "Retten i Horsens",
        "isSubbed": false,
        "extra": {}
      },
      {
        "id": 539,
        "name": "Retten i Kolding",
        "isSubbed": false,
        "extra": {}
      }
    ]
  }
}