{
  "cached_at": "2025-08-30T02:57:16.097347",
  "data": {
    "page": 1,
    "pageSize": 25,
    "numPages": 2,
    "previous": null,
    "next": "http://km24.dk/api/generic-values/197?page=2",
    "count": 34,
    "items": [
      {
        "id": 160,
        "name": "Københavns Byret",
        "isSubbed": true,
        "extra": {}
      },
      {
        "id": 159,
        "name": "Østre Landsret",
        "isSubbed": true,
        "extra": {}
      },
      {
        "id": 188,
        "name": "Retten i Gladsaxe",
        "isSubbed": true,
        "extra": {}
      },
      {
        "id": 164,
        "name": "Retten i Glostrup",
        "isSubbed": true,
        "extra": {}
      },
      {
        "id": 177,
        "name": "Retten i Roskilde",
        "isSubbed": true,
        "extra": {}
      },
      {
        "id": 182,
        "name": "Retten på Frederiksberg",
        "isSubbed": true,
        "extra": {}
      },
      {
        "id": 158,
        "name": "Vestre Landsret",
        "isSubbed": true,
        "extra": {}
      },
      {
        "id": 189,
        "name": "Færøerne",
        "isSubbed": false,
        "extra": {}
      },
      {
        "id": 190,
        "name": "Grønlands landsret",
        "isSubbed": false,
        "extra": {}
      },
      {
        "id": 157,
        "name": "Højesteret",
        "isSubbed": false,
        "extra": {}
      },
      {
        "id": 161,
        "name": "Retten i Aalborg",
        "isSubbed": false,
        "extra": {}
      },
      {
        "id": 162,
        "name": "Retten i Aarhus",
        "isSubbed": false,
        "extra": {}
      },
      {
        "id": 163,
        "name": "Retten i Esbjerg",
        "isSubbed": false,
        "extra": {}
      },
      {
        "id": 186,
        "name": "Retten i Gråsten",
        "isSubbed": false,
        "extra": {}
      },
      {
        "id": 165,
        "name": "Retten i Grønland",
        "isSubbed": false,
        "extra": {}
      },
      {
        "id": 185,
        "name": "Retten i Helsingør",
        "isSubbed": false,
        "extra": {}
      },
      {
        "id": 166,
        "name": "Retten i Herning",
        "isSubbed": false,
        "extra": {}
      },
      {
        "id": 167,
        "name": "Retten i Hillerød",
        "isSubbed": false,
        "extra": {}
      },
      {
        "id": 168,
        "name": "Retten i Hjørring",
        "isSubbed": false,
        "extra": {}
      },
      {
        "id": 184,
        "name": "Retten i Holbæk",
        "isSubbed": false,
        "extra": {}
      },
      {
        "id": 169,
        "name": "Retten i Holstebro",
        "isSubbed": false,
        "extra": {}
      },
      {
        "id": 170,
        "name": "Retten i Horsens",
        "isSubbed": false,
        "extra": {}
      },
      {
        "id": 171,
        "name": "Retten i Kolding",
        "isSubbed": false,
        "extra": {}
      },
      {
        "id": 172,
        "name": "Retten i Lyngby",
        "isSubbed": false,
        "extra": {}
      },
      {
        "id": 174,
        "name": "Retten i Næstved",
        "isSubbed": false,
        "extra": {}
      }
    ]
  }
}