{
  "cached_at": "2025-08-30T04:45:30.574054",
  "data": {
    "page": 1,
    "pageSize": 25,
    "numPages": 88,
    "previous": null,
    "next": "http://km24.dk/api/generic-values/283?page=2",
    "count": 2187,
    "items": [
      {
        "id": 2989,
        "name": "G*Lovgivningen om euforiserende stoffer",
        "isSubbed": true,
        "extra": {}
      },
      {
        "id": 2246,
        "name": "Lovgivning om euforiserende stoffer",
        "isSubbed": true,
        "extra": {}
      },
      {
        "id": 2247,
        "name": "Lovgivning om euforiserende stoffer (Salg)",
        "isSubbed": true,
        "extra": {}
      },
      {
        "id": 1077,
        "name": "Målrettet indsats/vold/bande",
        "isSubbed": true,
        "extra": {}
      },
      {
        "id": 2221,
        "name": "Rocker-/bandekriminel",
        "isSubbed": true,
        "extra": {}
      },
      {
        "id": 1351,
        "name": "§ 26-afhøring, udlændingeloven",
        "isSubbed": false,
        "extra": {}
      },
      {
        "id": 9111,
        "name": "*Ukendt/Ikke relevant",
        "isSubbed": false,
        "extra": {}
      },
      {
        "id": 1222,
        "name": "A-tilladelser/B-status/statistik",
        "isSubbed": false,
        "extra": {}
      },
      {
        "id": 1780,
        "name": "Adgangsmiddel datasystem, uberett. anskaf./videregiv., betal. brugere",
        "isSubbed": false,
        "extra": {}
      },
      {
        "id": 1779,
        "name": "Adgangsmiddel datasystem, uberett. anskaf./videregiv., personoplysn.",
        "isSubbed": false,
        "extra": {}
      },
      {
        "id": 1778,
        "name": "Adgangsmiddel datasystem, uberett. anskaf./videregiv., samfundsvigtigt",
        "isSubbed": false,
        "extra": {}
      },
      {
        "id": 1776,
        "name": "Adgangsmiddel datasystem, uberett. salg/udbredelse",
        "isSubbed": false,
        "extra": {}
      },
      {
        "id": 1777,
        "name": "Adgangsmiddel datasystem, uberett. videregivelse større antal",
        "isSubbed": false,
        "extra": {}
      },
      {
        "id": 1344,
        "name": "Administrativ sagsbehandling I udlændingesager i øvrigt",
        "isSubbed": false,
        "extra": {}
      },
      {
        "id": 1170,
        "name": "Administrative forskrifter",
        "isSubbed": false,
        "extra": {}
      },
      {
        "id": 1313,
        "name": "Adoption",
        "isSubbed": false,
        "extra": {}
      },
      {
        "id": 1309,
        "name": "Ægteskab",
        "isSubbed": false,
        "extra": {}
      },
      {
        "id": 990,
        "name": "Ændring af foranstaltning",
        "isSubbed": false,
        "extra": {}
      },
      {
        "id": 1792,
        "name": "Ærekrænkelser",
        "isSubbed": false,
        "extra": {}
      },
      {
        "id": 1793,
        "name": "Ærekrænkelser overfor døde",
        "isSubbed": false,
        "extra": {}
      },
      {
        "id": 2373,
        "name": "Afgiftslove for drikkevarer, tobak, benzin",
        "isSubbed": false,
        "extra": {}
      },
      {
        "id": 1936,
        "name": "Afpresning",
        "isSubbed": false,
        "extra": {}
      },
      {
        "id": 1937,
        "name": "Åger",
        "isSubbed": false,
        "extra": {}
      },
      {
        "id": 1529,
        "name": "Aggressionsforbrydelse",
        "isSubbed": false,
        "extra": {}
      },
      {
        "id": 989,
        "name": "Aktindsigt",
        "isSubbed": false,
        "extra": {}
      }
    ]
  }
}