{
  "cached_at": "2025-08-30T02:21:22.546560",
  "data": {
    "page": 1,
    "pageSize": 25,
    "numPages": 2,
    "previous": null,
    "next": "http://km24.dk/api/generic-values/51?page=2",
    "count": 30,
    "items": [
      {
        "id": 127,
        "name": "Højesteret",
        "isSubbed": true,
        "extra": {}
      },
      {
        "id": 131,
        "name": "Københavns Byret",
        "isSubbed": true,
        "extra": {}
      },
      {
        "id": 129,
        "name": "Østre Landsret",
        "isSubbed": true,
        "extra": {}
      },
      {
        "id": 134,
        "name": "Retten i Aalborg",
        "isSubbed": true,
        "extra": {}
      },
      {
        "id": 144,
        "name": "Retten i Aarhus",
        "isSubbed": true,
        "extra": {}
      },
      {
        "id": 146,
        "name": "Retten i Esbjerg",
        "isSubbed": true,
        "extra": {}
      },
      {
        "id": 136,
        "name": "Retten i Glostrup",
        "isSubbed": true,
        "extra": {}
      },
      {
        "id": 155,
        "name": "Retten i Grønland",
        "isSubbed": true,
        "extra": {}
      },
      {
        "id": 137,
        "name": "Retten i Helsingør",
        "isSubbed": true,
        "extra": {}
      },
      {
        "id": 140,
        "name": "Retten i Herning",
        "isSubbed": true,
        "extra": {}
      },
      {
        "id": 150,
        "name": "Retten i Hillerød",
        "isSubbed": true,
        "extra": {}
      },
      {
        "id": 147,
        "name": "Retten i Hjørring",
        "isSubbed": true,
        "extra": {}
      },
      {
        "id": 153,
        "name": "Retten i Holbæk",
        "isSubbed": true,
        "extra": {}
      },
      {
        "id": 145,
        "name": "Retten i Holstebro",
        "isSubbed": true,
        "extra": {}
      },
      {
        "id": 154,
        "name": "Retten i Horsens",
        "isSubbed": true,
        "extra": {}
      },
      {
        "id": 133,
        "name": "Retten i Kolding",
        "isSubbed": true,
        "extra": {}
      },
      {
        "id": 148,
        "name": "Retten i Lyngby",
        "isSubbed": true,
        "extra": {}
      },
      {
        "id": 135,
        "name": "Retten i Næstved",
        "isSubbed": true,
        "extra": {}
      },
      {
        "id": 139,
        "name": "Retten i Nykøbing Falster",
        "isSubbed": true,
        "extra": {}
      },
      {
        "id": 132,
        "name": "Retten i Odense",
        "isSubbed": true,
        "extra": {}
      },
      {
        "id": 142,
        "name": "Retten i Randers",
        "isSubbed": true,
        "extra": {}
      },
      {
        "id": 141,
        "name": "Retten i Roskilde",
        "isSubbed": true,
        "extra": {}
      },
      {
        "id": 138,
        "name": "Retten i Sønderborg",
        "isSubbed": true,
        "extra": {}
      },
      {
        "id": 151,
        "name": "Retten i Svendborg",
        "isSubbed": true,
        "extra": {}
      },
      {
        "id": 149,
        "name": "Retten i Viborg",
        "isSubbed": true,
        "extra": {}
      }
    ]
  }
}